{
  "extensionName": {
    "message": "Context QR",
    "description": "Name of the extension."
  },

  "extensionDescription": {
    "message": "Recognises qr-codes in images",
    "description": "Description of the add-on."
  },

  "contextMenuItem": {
    "message": "Recognise as QR-code",
    "description": "Title of context menu item that recognises qr code when clicked."
  },
  
  "qrNotificationHeader": {
    "message": "QR Code Contents",
    "description": "Title of notification /w qr code contents."
  },
  
  "qrNotificationErrHeader": {
    "message": "Error",
    "description": "Title of error notification"
  },

  "qrNotificationErrContents": {
    "message": "Can't recognise this picture as QR-code",
    "description": "Content of error notification"
  }
  
}
